Italian Elections
…
## Warning: attributes are not identical across measure variables;
## they will be dropped

## # A tibble: 11,046 x 2
##    party `c()`
##    <chr> <chr>
##  1 date  17140
##  2 date  17140
##  3 date  17141
##  4 date  17143
##  5 date  17146
##  6 date  17148
##  7 date  17148
##  8 date  17149
##  9 date  17149
## 10 date  17151
## # ... with 11,036 more rows
…
## # A tibble: 526 x 21
##    date       firm      n sd    source FIPDLFI   IdV    LN   UdC LADESTRA
##    <date>     <chr> <int> <chr> <chr>    <dbl> <dbl> <dbl> <dbl>    <dbl>
##  1 2018-10-01 SWG    1500 0.024 http:…     7.3    NA  32.2    NA       NA
##  2 2018-09-28 Bidi…   867 0.031 http:…     8.2    NA  30.4    NA       NA
##  3 2018-09-26 Index   800 0.032 https…     8.9    NA  31.2    NA       NA
##  4 2018-09-25 Noto     NA <NA>  https…     9      NA  34      NA       NA
##  5 2018-09-24 SWG    1500 0.024 http:…     8.3    NA  32      NA       NA
##  6 2018-09-23 Tecnè  1000 0.029 http:…    10.9    NA  32.2    NA       NA
##  7 2018-09-23 Gpf     801 0.032 http:…    10.9    NA  29.9    NA       NA
##  8 2018-09-23 EMG    1469 0.024 https…     8.1    NA  32.3    NA       NA
##  9 2018-09-22 Scen…  1500 0.024 https…     8      NA  34.7    NA       NA
## 10 2018-09-21 Ixè    1000 0.029 https…     9      NA  31.2    NA       NA
## # ... with 516 more rows, and 11 more variables: PD <dbl>, M5S <dbl>,
## #   FdI <dbl>, NCDUdC <dbl>, SI <chr>, AP <chr>, MDP <chr>, LeU <chr>,
## #   E <chr>, I <chr>, NcI <chr>
